%YAML 1.1
%TAG !u! tag:unity3d.com,2011:
--- !u!687078895 &4343727234628468602
SpriteAtlas:
  m_ObjectHideFlags: 0
  m_CorrespondingSourceObject: {fileID: 0}
  m_PrefabInstance: {fileID: 0}
  m_PrefabAsset: {fileID: 0}
  m_Name: SpriteAtlasPark
  m_EditorData:
    serializedVersion: 2
    textureSettings:
      serializedVersion: 2
      anisoLevel: 1
      compressionQuality: 50
      maxTextureSize: 2048
      textureCompression: 0
      filterMode: 1
      generateMipMaps: 0
      readable: 0
      crunchedCompression: 0
      sRGB: 1
    platformSettings: []
    packingSettings:
      serializedVersion: 2
      padding: 4
      blockOffset: 1
      allowAlphaSplitting: 0
      enableRotation: 0
      enableTightPacking: 0
    variantMultiplier: 1
    packables:
    - {fileID: 2800000, guid: 5c93a3d0334884242b888109936eb661, type: 3}
    - {fileID: 2800000, guid: 9c24bd6892e04cb43aa4548ca5a76c1b, type: 3}
    - {fileID: 2800000, guid: 294892b5b9b6dd74da79645a21032739, type: 3}
    - {fileID: 2800000, guid: f37ae9a07b65ac646abc084a044a2bde, type: 3}
    - {fileID: 2800000, guid: 6c3ffa214d08ea740aefd8b11369680c, type: 3}
    - {fileID: 2800000, guid: e2cd24c6a50327a478f5f07a047b9e1c, type: 3}
    - {fileID: 2800000, guid: 6bca04ac1f26d7b4e85cf530dc0a9373, type: 3}
    - {fileID: 2800000, guid: 96360257c7f0ef54c9cc55bfa95369c1, type: 3}
    - {fileID: 2800000, guid: e33f0c7f7745e754abfcbed8e381cb35, type: 3}
    - {fileID: 2800000, guid: 3deb08222df390e49878ed84208261c4, type: 3}
    - {fileID: 2800000, guid: c630b5547f639ed4fb23bc649f61f9de, type: 3}
    - {fileID: 2800000, guid: e65acb50dd7d58242afc9baea8b2d8d7, type: 3}
    - {fileID: 2800000, guid: 3241f1994cda8374ba2643f76111115f, type: 3}
    - {fileID: 2800000, guid: 361edc6c5b4b4704c8bc2f580757f138, type: 3}
    - {fileID: 2800000, guid: 5318dad18f7dc0440ba1a02c793bc84b, type: 3}
    - {fileID: 2800000, guid: c19caf1aad985404087b637268e874f8, type: 3}
    - {fileID: 2800000, guid: 9b634cb5bf35dac4bb05ec2eadf29969, type: 3}
    - {fileID: 2800000, guid: 94fc3059c1f6cf1418c4ae87c1045f3a, type: 3}
    - {fileID: 2800000, guid: 7baa459dcb008dd499ebe79920be5a89, type: 3}
    - {fileID: 2800000, guid: 84f0a335fe98b66498044a37f48636e3, type: 3}
    - {fileID: 2800000, guid: 2cd822e142d57f44cb1f625959018735, type: 3}
    - {fileID: 2800000, guid: 8917729b41ae03d45a3eff48906cf6dd, type: 3}
    - {fileID: 2800000, guid: 134b9b440ba1e4a4590e04cef6eb22ad, type: 3}
    - {fileID: 2800000, guid: 13cdd9d95a19cb9478d7c7de0d8dd7c0, type: 3}
    - {fileID: 2800000, guid: 425db71e4a7e5734698394b6e547d087, type: 3}
    - {fileID: 2800000, guid: af139ea5459c43a44bd2d184118b491c, type: 3}
    - {fileID: 2800000, guid: 1b91a50a7d247da46a6c1fa1dc3f5ba4, type: 3}
    - {fileID: 2800000, guid: 9f87fa3d5ae26a648be17df5fe5f289a, type: 3}
    - {fileID: 2800000, guid: 32c591cd902a1c445a4a721e06e2cb33, type: 3}
    - {fileID: 2800000, guid: 461aa2084af303f42bca7133f7fa11a0, type: 3}
    - {fileID: 2800000, guid: f733fe9862b2c74459e0e592ca8ef79a, type: 3}
    - {fileID: 2800000, guid: e63af51a1e7a45b4e82afb3bac57e78d, type: 3}
    - {fileID: 2800000, guid: 5602b0ac52b092448bdc4bba7810319d, type: 3}
    - {fileID: 2800000, guid: 407b23ce018ffdd4989d68cb6849e1ca, type: 3}
    - {fileID: 2800000, guid: c41e2f18ec0d3a94c86e315915f63d87, type: 3}
    - {fileID: 2800000, guid: beda82115793986419f4e6fb04669edd, type: 3}
    - {fileID: 2800000, guid: 4d049ed7d2f452c419ad996489008d19, type: 3}
    - {fileID: 2800000, guid: 4e5478a6f9a8c6846959f28e6cbe32d2, type: 3}
    - {fileID: 2800000, guid: fce64e182de19504d90ac68fa9ad641e, type: 3}
    - {fileID: 2800000, guid: e8be672360bff8b47be02b2d134f1e08, type: 3}
    - {fileID: 2800000, guid: c09dc05759de1354ca633704f9d909ae, type: 3}
    - {fileID: 2800000, guid: 537ec426394bf4a4cb2f7de3d9f02b98, type: 3}
    - {fileID: 2800000, guid: 6b3798f6d83325c459b98554e04da3a5, type: 3}
    - {fileID: 2800000, guid: 6135cf1a042e70e4ebc27d0ac1806fd0, type: 3}
    - {fileID: 2800000, guid: 88adee918ed11cf4fac906bc7eb77287, type: 3}
    - {fileID: 2800000, guid: 277d541b5e06f6843bb5c87024284e97, type: 3}
    - {fileID: 2800000, guid: 40d9803b0f793904b928b873634d6ddf, type: 3}
    - {fileID: 2800000, guid: 31deb1847cec4cc45a7efdf32a3cf057, type: 3}
    - {fileID: 2800000, guid: 01bbcf1745b1b794eb4b30a633e9dfbd, type: 3}
    - {fileID: 2800000, guid: 39c537dd67fa98f47a2bbb8e4993488b, type: 3}
    - {fileID: 2800000, guid: a23dc22b9ac802348ac41e2852960eb4, type: 3}
    - {fileID: 2800000, guid: 2625fed7df30a314488339aa601a2f2d, type: 3}
    - {fileID: 2800000, guid: a4305565cffa4ee42a6640c8445862e1, type: 3}
    - {fileID: 2800000, guid: 2495e08f4adace546881c0964ea80aa7, type: 3}
    - {fileID: 2800000, guid: 3ca83b067f36cb6488887500afa252ea, type: 3}
    - {fileID: 2800000, guid: 1dae5b17582d05c4f8a25e234ae993fa, type: 3}
    - {fileID: 2800000, guid: e53615890243abb4e91b419724fcc854, type: 3}
    - {fileID: 2800000, guid: 065622cb080127b4887348c05a02c2e6, type: 3}
    - {fileID: 2800000, guid: 41f8023ce7f864240beb9c1864e223b8, type: 3}
    - {fileID: 2800000, guid: df6c75658c99b7243ad26fd1df08f3d4, type: 3}
    - {fileID: 2800000, guid: dd2aae135d4046c48b4481e4a26b2231, type: 3}
    - {fileID: 2800000, guid: cfa905bec273fe94cb52b0886ea46af1, type: 3}
    - {fileID: 2800000, guid: 94945c8fbe0ce194aaf9c616b8ff7484, type: 3}
    - {fileID: 2800000, guid: d7ccbdcfa58ce7c4aa97f84073acca92, type: 3}
    - {fileID: 2800000, guid: 382513fa05d31b143b57f55d20be822e, type: 3}
    - {fileID: 2800000, guid: 3adef94ac7479504387e84cb41a01067, type: 3}
    - {fileID: 2800000, guid: 2fde0297d96a21d4cbdbd915e02d10ba, type: 3}
    - {fileID: 2800000, guid: da9913ca16464ee4a897c83f6f9a243d, type: 3}
    - {fileID: 2800000, guid: d3aa6a607f1e99f4f9dcc983a45c6526, type: 3}
    - {fileID: 2800000, guid: 00fdf8a103c68fa4d94a4845b3dc4f65, type: 3}
    - {fileID: 2800000, guid: 1eea733d13246ad4095ebb4d31c8c624, type: 3}
    - {fileID: 2800000, guid: 4aee32651aeff69498b3d3c2f98a693d, type: 3}
    - {fileID: 2800000, guid: 4424285eb44c39442bd555e2a5e8a851, type: 3}
    - {fileID: 2800000, guid: 99841d1b8cae200469c94dcc0bd44d53, type: 3}
    - {fileID: 2800000, guid: 65c483c5bd4bc194fa3846f2e92d770c, type: 3}
    - {fileID: 2800000, guid: cade5d54b5e9bb6418b7b9b7ab8a0968, type: 3}
    - {fileID: 2800000, guid: 85c136842950a764c9aff31ae4e93e69, type: 3}
    - {fileID: 2800000, guid: db23fd525e1995b4fa5e68afa7367cbd, type: 3}
    - {fileID: 2800000, guid: bccefddbf884647479f98b42ab948420, type: 3}
    - {fileID: 2800000, guid: ab0cb5f2ed5a7344a9ddc04e05def092, type: 3}
    - {fileID: 2800000, guid: 0ca88d891a7dfac41aacd5815b035394, type: 3}
    - {fileID: 2800000, guid: e9e814149d3905349afff6bdcb0dac95, type: 3}
    - {fileID: 2800000, guid: 0df15a42b81c93b42bdfde17537b371d, type: 3}
    - {fileID: 2800000, guid: a5645c934a036364ca0ac61cce514e4f, type: 3}
    - {fileID: 2800000, guid: 1f1a85fbb9882bf40ba53cb8694e877b, type: 3}
    - {fileID: 2800000, guid: 2c2fa63620a2407489a641dfd9fc4b65, type: 3}
    - {fileID: 2800000, guid: 64be15efeee971147b24de1b2f7930a6, type: 3}
    - {fileID: 2800000, guid: 5133277fd1d8db845b9c181e4288f0cd, type: 3}
    - {fileID: 2800000, guid: 4f81ce4d4b85da14a854be32cb960823, type: 3}
    - {fileID: 2800000, guid: adf7b480d9d18ac44bea7a9170c9fc3a, type: 3}
    - {fileID: 2800000, guid: 1811e9eb4505b424a83814b527ebd518, type: 3}
    - {fileID: 2800000, guid: daeb7f182bf76f34aaaede53fc24f595, type: 3}
    - {fileID: 2800000, guid: 40342bc196a3fb541980fcd3bb5ff03e, type: 3}
    - {fileID: 2800000, guid: 3a604e5c5f580c3459dbbab6bccad9c2, type: 3}
    - {fileID: 2800000, guid: a7d7fa84da952ec4a83dad8571bcef03, type: 3}
    - {fileID: 2800000, guid: 7a4cd7ca4ee09ff47b16d6d41458bc5a, type: 3}
    - {fileID: 2800000, guid: 4af1e3a3759fa8147873da281811a57d, type: 3}
    - {fileID: 2800000, guid: badad436c92dea548b89526df8e5eae3, type: 3}
    - {fileID: 2800000, guid: 2a751ee0040206a42a6297d6392ffdfb, type: 3}
    - {fileID: 2800000, guid: de35daa6bb248b24aa6af09232705a54, type: 3}
    - {fileID: 2800000, guid: d43ebd8ca430b2b48946c4368ae21eba, type: 3}
    - {fileID: 2800000, guid: fe2fc4596bb5a9842bbffb8620a268c8, type: 3}
    - {fileID: 2800000, guid: 95af3713bedd1364289cd850f29b6903, type: 3}
    - {fileID: 2800000, guid: 79f47fee922797c499cf805e7bf6bd60, type: 3}
    - {fileID: 2800000, guid: 71c413859125f0545a078a5101694a61, type: 3}
    - {fileID: 2800000, guid: dbca8565c7bd80441a782a97ebaefb0e, type: 3}
    - {fileID: 2800000, guid: 637c894613a6f9e4cae53dcedc235ea2, type: 3}
    - {fileID: 2800000, guid: e7c49a518c739ba43b38635d17c5dba5, type: 3}
    - {fileID: 2800000, guid: f08482baae55f354aada032ce26ce632, type: 3}
    totalSpriteSurfaceArea: 3698848
    bindAsDefault: 1
  m_MasterAtlas: {fileID: 0}
  m_PackedSprites:
  - {fileID: 21300000, guid: e65acb50dd7d58242afc9baea8b2d8d7, type: 3}
  - {fileID: 21300000, guid: d3aa6a607f1e99f4f9dcc983a45c6526, type: 3}
  - {fileID: 21300000, guid: adf7b480d9d18ac44bea7a9170c9fc3a, type: 3}
  - {fileID: 21300000, guid: f37ae9a07b65ac646abc084a044a2bde, type: 3}
  - {fileID: 21300000, guid: 5c93a3d0334884242b888109936eb661, type: 3}
  - {fileID: 21300000, guid: 2a751ee0040206a42a6297d6392ffdfb, type: 3}
  - {fileID: 21300000, guid: beda82115793986419f4e6fb04669edd, type: 3}
  - {fileID: 21300000, guid: 6c3ffa214d08ea740aefd8b11369680c, type: 3}
  - {fileID: 21300000, guid: e7c49a518c739ba43b38635d17c5dba5, type: 3}
  - {fileID: 21300000, guid: 88adee918ed11cf4fac906bc7eb77287, type: 3}
  - {fileID: 21300000, guid: 00fdf8a103c68fa4d94a4845b3dc4f65, type: 3}
  - {fileID: 21300000, guid: 40342bc196a3fb541980fcd3bb5ff03e, type: 3}
  - {fileID: 21300000, guid: 5318dad18f7dc0440ba1a02c793bc84b, type: 3}
  - {fileID: 21300000, guid: 2cd822e142d57f44cb1f625959018735, type: 3}
  - {fileID: 21300000, guid: 3deb08222df390e49878ed84208261c4, type: 3}
  - {fileID: 21300000, guid: 0df15a42b81c93b42bdfde17537b371d, type: 3}
  - {fileID: 21300000, guid: db23fd525e1995b4fa5e68afa7367cbd, type: 3}
  - {fileID: 21300000, guid: ab0cb5f2ed5a7344a9ddc04e05def092, type: 3}
  - {fileID: 21300000, guid: 95af3713bedd1364289cd850f29b6903, type: 3}
  - {fileID: 21300000, guid: dd2aae135d4046c48b4481e4a26b2231, type: 3}
  - {fileID: 21300000, guid: e8be672360bff8b47be02b2d134f1e08, type: 3}
  - {fileID: 21300000, guid: a5645c934a036364ca0ac61cce514e4f, type: 3}
  - {fileID: 21300000, guid: 4af1e3a3759fa8147873da281811a57d, type: 3}
  - {fileID: 21300000, guid: e9e814149d3905349afff6bdcb0dac95, type: 3}
  - {fileID: 21300000, guid: 134b9b440ba1e4a4590e04cef6eb22ad, type: 3}
  - {fileID: 21300000, guid: c630b5547f639ed4fb23bc649f61f9de, type: 3}
  - {fileID: 21300000, guid: cade5d54b5e9bb6418b7b9b7ab8a0968, type: 3}
  - {fileID: 21300000, guid: 31deb1847cec4cc45a7efdf32a3cf057, type: 3}
  - {fileID: 21300000, guid: 85c136842950a764c9aff31ae4e93e69, type: 3}
  - {fileID: 21300000, guid: a7d7fa84da952ec4a83dad8571bcef03, type: 3}
  - {fileID: 21300000, guid: 84f0a335fe98b66498044a37f48636e3, type: 3}
  - {fileID: 21300000, guid: 4aee32651aeff69498b3d3c2f98a693d, type: 3}
  - {fileID: 21300000, guid: a4305565cffa4ee42a6640c8445862e1, type: 3}
  - {fileID: 21300000, guid: df6c75658c99b7243ad26fd1df08f3d4, type: 3}
  - {fileID: 21300000, guid: dbca8565c7bd80441a782a97ebaefb0e, type: 3}
  - {fileID: 21300000, guid: 71c413859125f0545a078a5101694a61, type: 3}
  - {fileID: 21300000, guid: af139ea5459c43a44bd2d184118b491c, type: 3}
  - {fileID: 21300000, guid: 294892b5b9b6dd74da79645a21032739, type: 3}
  - {fileID: 21300000, guid: 9b634cb5bf35dac4bb05ec2eadf29969, type: 3}
  - {fileID: 21300000, guid: 65c483c5bd4bc194fa3846f2e92d770c, type: 3}
  - {fileID: 21300000, guid: 3ca83b067f36cb6488887500afa252ea, type: 3}
  - {fileID: 21300000, guid: 537ec426394bf4a4cb2f7de3d9f02b98, type: 3}
  - {fileID: 21300000, guid: badad436c92dea548b89526df8e5eae3, type: 3}
  - {fileID: 21300000, guid: 2c2fa63620a2407489a641dfd9fc4b65, type: 3}
  - {fileID: 21300000, guid: 637c894613a6f9e4cae53dcedc235ea2, type: 3}
  - {fileID: 21300000, guid: 4e5478a6f9a8c6846959f28e6cbe32d2, type: 3}
  - {fileID: 21300000, guid: de35daa6bb248b24aa6af09232705a54, type: 3}
  - {fileID: 21300000, guid: e2cd24c6a50327a478f5f07a047b9e1c, type: 3}
  - {fileID: 21300000, guid: 6b3798f6d83325c459b98554e04da3a5, type: 3}
  - {fileID: 21300000, guid: 1dae5b17582d05c4f8a25e234ae993fa, type: 3}
  - {fileID: 21300000, guid: 01bbcf1745b1b794eb4b30a633e9dfbd, type: 3}
  - {fileID: 21300000, guid: c09dc05759de1354ca633704f9d909ae, type: 3}
  - {fileID: 21300000, guid: 96360257c7f0ef54c9cc55bfa95369c1, type: 3}
  - {fileID: 21300000, guid: 2fde0297d96a21d4cbdbd915e02d10ba, type: 3}
  - {fileID: 21300000, guid: 4d049ed7d2f452c419ad996489008d19, type: 3}
  - {fileID: 21300000, guid: 2625fed7df30a314488339aa601a2f2d, type: 3}
  - {fileID: 21300000, guid: 461aa2084af303f42bca7133f7fa11a0, type: 3}
  - {fileID: 21300000, guid: fce64e182de19504d90ac68fa9ad641e, type: 3}
  - {fileID: 21300000, guid: c41e2f18ec0d3a94c86e315915f63d87, type: 3}
  - {fileID: 21300000, guid: daeb7f182bf76f34aaaede53fc24f595, type: 3}
  - {fileID: 21300000, guid: 9c24bd6892e04cb43aa4548ca5a76c1b, type: 3}
  - {fileID: 21300000, guid: f733fe9862b2c74459e0e592ca8ef79a, type: 3}
  - {fileID: 21300000, guid: 94fc3059c1f6cf1418c4ae87c1045f3a, type: 3}
  - {fileID: 21300000, guid: fe2fc4596bb5a9842bbffb8620a268c8, type: 3}
  - {fileID: 21300000, guid: e53615890243abb4e91b419724fcc854, type: 3}
  - {fileID: 21300000, guid: 0ca88d891a7dfac41aacd5815b035394, type: 3}
  - {fileID: 21300000, guid: 3241f1994cda8374ba2643f76111115f, type: 3}
  - {fileID: 21300000, guid: 13cdd9d95a19cb9478d7c7de0d8dd7c0, type: 3}
  - {fileID: 21300000, guid: 1b91a50a7d247da46a6c1fa1dc3f5ba4, type: 3}
  - {fileID: 21300000, guid: e63af51a1e7a45b4e82afb3bac57e78d, type: 3}
  - {fileID: 21300000, guid: c19caf1aad985404087b637268e874f8, type: 3}
  - {fileID: 21300000, guid: 6135cf1a042e70e4ebc27d0ac1806fd0, type: 3}
  - {fileID: 21300000, guid: 3adef94ac7479504387e84cb41a01067, type: 3}
  - {fileID: 21300000, guid: f08482baae55f354aada032ce26ce632, type: 3}
  - {fileID: 21300000, guid: da9913ca16464ee4a897c83f6f9a243d, type: 3}
  - {fileID: 21300000, guid: 7a4cd7ca4ee09ff47b16d6d41458bc5a, type: 3}
  - {fileID: 21300000, guid: 382513fa05d31b143b57f55d20be822e, type: 3}
  - {fileID: 21300000, guid: 277d541b5e06f6843bb5c87024284e97, type: 3}
  - {fileID: 21300000, guid: 99841d1b8cae200469c94dcc0bd44d53, type: 3}
  - {fileID: 21300000, guid: a23dc22b9ac802348ac41e2852960eb4, type: 3}
  - {fileID: 21300000, guid: 40d9803b0f793904b928b873634d6ddf, type: 3}
  - {fileID: 21300000, guid: 8917729b41ae03d45a3eff48906cf6dd, type: 3}
  - {fileID: 21300000, guid: 065622cb080127b4887348c05a02c2e6, type: 3}
  - {fileID: 21300000, guid: bccefddbf884647479f98b42ab948420, type: 3}
  - {fileID: 21300000, guid: 1811e9eb4505b424a83814b527ebd518, type: 3}
  - {fileID: 21300000, guid: 1f1a85fbb9882bf40ba53cb8694e877b, type: 3}
  - {fileID: 21300000, guid: 41f8023ce7f864240beb9c1864e223b8, type: 3}
  - {fileID: 21300000, guid: 3a604e5c5f580c3459dbbab6bccad9c2, type: 3}
  - {fileID: 21300000, guid: 361edc6c5b4b4704c8bc2f580757f138, type: 3}
  - {fileID: 21300000, guid: d43ebd8ca430b2b48946c4368ae21eba, type: 3}
  - {fileID: 21300000, guid: 5602b0ac52b092448bdc4bba7810319d, type: 3}
  - {fileID: 21300000, guid: 6bca04ac1f26d7b4e85cf530dc0a9373, type: 3}
  - {fileID: 21300000, guid: 1eea733d13246ad4095ebb4d31c8c624, type: 3}
  - {fileID: 21300000, guid: 9f87fa3d5ae26a648be17df5fe5f289a, type: 3}
  - {fileID: 21300000, guid: 4f81ce4d4b85da14a854be32cb960823, type: 3}
  - {fileID: 21300000, guid: 7baa459dcb008dd499ebe79920be5a89, type: 3}
  - {fileID: 21300000, guid: 32c591cd902a1c445a4a721e06e2cb33, type: 3}
  - {fileID: 21300000, guid: 39c537dd67fa98f47a2bbb8e4993488b, type: 3}
  - {fileID: 21300000, guid: 425db71e4a7e5734698394b6e547d087, type: 3}
  - {fileID: 21300000, guid: 4424285eb44c39442bd555e2a5e8a851, type: 3}
  - {fileID: 21300000, guid: cfa905bec273fe94cb52b0886ea46af1, type: 3}
  - {fileID: 21300000, guid: 407b23ce018ffdd4989d68cb6849e1ca, type: 3}
  - {fileID: 21300000, guid: 79f47fee922797c499cf805e7bf6bd60, type: 3}
  - {fileID: 21300000, guid: 5133277fd1d8db845b9c181e4288f0cd, type: 3}
  - {fileID: 21300000, guid: e33f0c7f7745e754abfcbed8e381cb35, type: 3}
  - {fileID: 21300000, guid: 2495e08f4adace546881c0964ea80aa7, type: 3}
  - {fileID: 21300000, guid: 94945c8fbe0ce194aaf9c616b8ff7484, type: 3}
  - {fileID: 21300000, guid: d7ccbdcfa58ce7c4aa97f84073acca92, type: 3}
  - {fileID: 21300000, guid: 64be15efeee971147b24de1b2f7930a6, type: 3}
  m_PackedSpriteNamesToIndex:
  - Beetle
  - Skittle
  - Whistle
  - Bag_02
  - Aircraft
  - Ear_02
  - FerrisWheel
  - Ball
  - Tail
  - House
  - Snail_01
  - Eye01_open
  - BottleOfWater
  - Cap_02
  - Balloon_05
  - Trail
  - Star_02
  - Table
  - Hand_02
  - Roller
  - Garland
  - Train
  - Body
  - Toy
  - Cat_02
  - Balloons
  - Spotlight
  - JumpRope
  - Star_01
  - Eye02_open
  - Cap_01
  - Socks
  - Mask
  - RecordPlayer
  - Leg_02
  - Leg_01
  - Coin_01
  - Bag_01
  - Bow
  - Spire
  - Microphone
  - Guitar
  - Ear_01
  - UFO
  - Mouth
  - Flags
  - Eyebrow_01
  - Balloon_01
  - Had
  - PaperPinwheel
  - Key
  - Gloves
  - Balloon_03
  - ShoeTop
  - FinishingTape
  - Lollipop
  - Coin_05
  - FlowerInPot
  - Dumbbell
  - Eye01_close
  - Apple
  - CottonCandy
  - Cactus
  - Hand_01
  - Pencil
  - Teapot
  - Bird_01
  - Clock
  - Coin_02
  - Cup
  - Bouquet
  - HotDog
  - ShoeMain
  - Top
  - Skateboard
  - Eye02_wink
  - Scarf
  - IceCream_01
  - Speakers
  - LittleBird
  - IceCream_02
  - Cat_01
  - Poster_01
  - Stroller
  - Yula
  - Turtle
  - Poster_02
  - Eye02_close
  - Bird_02
  - Eyebrow_02
  - DogLeash
  - Balloon_02
  - Snail_02
  - Coin_03
  - Weight
  - CandyCan
  - Coin_04
  - Kite
  - Cocktail
  - Soda
  - Rope
  - Drink
  - Head
  - Umbrella_02
  - Balloon_04
  - Medal
  - RunningShoe
  - Sandwich
  - Umbrella_01
  m_Tag: SpriteAtlasPark
  m_IsVariant: 0
