%YAML 1.1
%TAG !u! tag:unity3d.com,2011:
--- !u!78 &1
TagManager:
  serializedVersion: 2
  tags:
  - SoughtObject
  - GameManager
  - ManyGoals
  layers:
  - Default
  - TransparentFX
  - Ignore Raycast
  - 
  - Water
  - UI
  - 
  - 
  - 
  - 
  - 
  - 
  - 
  - 
  - 
  - 
  - 
  - 
  - 
  - 
  - 
  - 
  - 
  - 
  - 
  - 
  - 
  - 
  - 
  - 
  - 
  - 
  m_SortingLayers:
  - name: BackGround
    uniqueID: 627277997
    locked: 0
  - name: Default
    uniqueID: 0
    locked: 0
  - name: Animation
    uniqueID: 1358179183
    locked: 0
  - name: FX
    uniqueID: 1615200655
    locked: 0
