%YAML 1.1
%TAG !u! tag:unity3d.com,2011:
--- !u!221 &22100000
AnimatorOverrideController:
  m_ObjectHideFlags: 0
  m_CorrespondingSourceObject: {fileID: 0}
  m_PrefabInstance: {fileID: 0}
  m_PrefabAsset: {fileID: 0}
  m_Name: OC_CharacterFox
  m_Controller: {fileID: 9100000, guid: 3d70c50c473ee7942957a17d7cd219d1, type: 2}
  m_Clips:
  - m_OriginalClip: {fileID: 7400000, guid: faa68dc851de7ed459273733b81902ac, type: 2}
    m_OverrideClip: {fileID: 7400000, guid: 00cc373c7befaac4f9b0e0b2b9845a53, type: 2}
  - m_OriginalClip: {fileID: 7400000, guid: b7ded4c3fb6ba414fa2eee681dca8590, type: 2}
    m_OverrideClip: {fileID: 7400000, guid: 39685547dcfcb4745964eb6ea17a5ace, type: 2}
  - m_OriginalClip: {fileID: 7400000, guid: 7ab7677fa2c0c654c8511116ec67ae0a, type: 2}
    m_OverrideClip: {fileID: 7400000, guid: 19613e391c2d8af44959ff26b1a9169b, type: 2}
